{
  "isLazada": true,
  "versionApp": 87,
  "removeFile": [
    "listCollection_men",
    "listCollection_boy",
    "listCollection_girls",
    "listCollection_women",
    "sale_date",
    "boys_accessories",
    "boys_clothing",
    "boys_shoes",
    "girls_accessories",
    "girls_clothing",
    "girls_shoes",
    "men_bags",
    "men_clothing",
    "men_shoes",
    "women_accessories",
    "women_bags",
    "women_clothing",
    "women_lingerie_sleep_lounge",
    "women_shoes",
    "women_wallets_accessories"
  ],
  "removeAllFile": [
    "listCollection_men",
    "listCollection_boy",
    "listCollection_girls",
    "listCollection_women",
    "sale_date",
    "boys_accessories",
    "boys_clothing",
    "boys_shoes",
    "girls_accessories",
    "girls_clothing",
    "girls_shoes",
    "men_bags",
    "men_clothing",
    "men_shoes",
    "women_accessories",
    "women_bags",
    "women_clothing",
    "women_lingerie_sleep_lounge",
    "women_shoes",
    "women_wallets_accessories"
  ]
}